{
  "name": "acf/titolo",
  "title": "Elle Titolo",
  "description": "Title block for Elle.",
  "category": "elle",
  "icon": "editor-textcolor",
  "keywords": ["Map", "Mappa"],
  "acf": {
    "mode": "edit",
    "renderTemplate": "block.php",
    "postTypes": ["post", "page", "bookroom"]
  },
  "align": "full"
}