{
  "name": "acf/carousel",
  "title": "Elle Carousel",
  "description": "Carousel block for Elle.",
  "category": "elle",
  "icon": "controls-forward",
  "keywords": ["carousel", "carosello", "slider"],
  "acf": {
    "mode": "edit",
    "renderTemplate": "block.php",
    "postTypes": ["post", "page", "bookroom"]
  },
  "align": "full"
}